<svg viewBox="0 0 90 41" xmlns="http://www.w3.org/2000/svg">
  <g fill="none" fill-rule="evenodd" transform="translate(0 1)">
    <path d="m34.27.948c-4.658-2.356-10.324-.535-12.814 3.995-2.098-1.895-5.01-4.162-9.784-3.927-4.513.382-7.989 2.65-10.43 6.806-1.891 3.78-1.385 8.376.371 11.349 1.261 2.135 3.278 3.624 3.278 3.624-.03-.052-.056-.106-.084-.159-.487-.952-.735-1.973-.744-3.064-.031-1.044.124-1.807.124-1.807.295.563.609 1.061.938 1.503 2.969 3.985 8.268 3.964 12.644 2.768 1.641-.446 2.861-.926 2.861-.926-4.535.034-8.21-6.888-5.428-10.591 1.344 2.849 3.4 5.681 6.338 7.03 4.138 1.897 9.01.864 13.236-.525 2.318-.583 4.695-.229 6.372.834.872.531 1.238.829 1.238.829 3.271.015 5.994-2.938 5.994-6.236 0-4.623-5.04-7.727-9.184-5.627-.067-.172-1.258-4.02-4.926-5.872" fill="#424a65"/>
    <g fill="#cc7d38">
      <path d="m17.254 38.04h-.072c-.289.512-.754.932-1.394 1.259-.641.328-1.37.492-2.187.492-.465 0-.949-.06-1.454-.18-.505-.12-.969-.32-1.394-.6-.425-.28-.777-.648-1.057-1.104-.28-.456-.421-1.019-.421-1.691 0-.864.244-1.551.733-2.063.489-.511 1.118-.903 1.887-1.175.769-.272 1.622-.452 2.56-.54.938-.088 1.855-.132 2.752-.132v-.288c0-.72-.261-1.251-.781-1.595-.521-.344-1.142-.516-1.863-.516-.609 0-1.194.128-1.754.384-.561.256-1.026.568-1.394.935l-1.49-1.751c.657-.608 1.414-1.064 2.271-1.367.857-.304 1.726-.456 2.608-.456 1.025 0 1.871.144 2.536.432.664.288 1.19.664 1.574 1.127.384.464.652.984.805 1.559.152.576.228 1.152.228 1.727v7h-2.692v-1.463m-.048-3.79h-.649c-.465 0-.954.02-1.466.06-.513.04-.986.128-1.418.264-.433.136-.793.328-1.081.576-.288.248-.432.588-.432 1.019 0 .272.06.5.18.684.12.184.276.332.469.444.192.112.409.192.649.24.24.048.481.072.721.072.993 0 1.746-.264 2.259-.791.513-.528.769-1.247.769-2.159v-.408"/>
      <path d="m20.979 27.989h3.149l3.03 8.396h.048l3.053-8.396h3.052l-4.59 11.514h-3.077l-4.663-11.514"/>
      <path d="m34.486 27.989h2.884v11.514h-2.884v-11.514"/>
      <path d="m39.605 33.698c0-.912.164-1.739.493-2.483.328-.744.773-1.379 1.334-1.907.561-.528 1.226-.935 1.995-1.223.769-.288 1.586-.432 2.452-.432.865 0 1.682.144 2.452.432.769.288 1.434.696 1.995 1.223.561.528 1.01 1.164 1.334 1.907.328.743.493 1.571.493 2.483 0 .911-.165 1.743-.493 2.495-.329.752-.773 1.396-1.334 1.931-.561.536-1.226.956-1.995 1.259-.769.303-1.586.456-2.452.456-.865 0-1.682-.152-2.452-.456-.769-.304-1.434-.724-1.995-1.259-.561-.536-1.01-1.179-1.334-1.931-.329-.752-.493-1.583-.493-2.495m2.932 0c0 .448.068.895.204 1.343.136.448.34.848.613 1.199.272.352.617.64 1.033.864.417.224.913.336 1.49.336.577 0 1.073-.111 1.49-.336.416-.224.761-.512 1.033-.864.272-.351.477-.751.613-1.199.136-.448.204-.895.204-1.343 0-.448-.068-.891-.204-1.332-.136-.44-.341-.835-.613-1.187-.273-.352-.617-.636-1.033-.852-.417-.216-.913-.324-1.49-.324-.577 0-1.074.108-1.49.324-.417.216-.761.5-1.033.852-.273.352-.477.748-.613 1.187-.136.44-.204.884-.204 1.332"/>
      <path d="m54.34 27.989h2.74v1.847h.048c.256-.576.701-1.083 1.334-1.523.633-.44 1.382-.66 2.247-.66.753 0 1.398.132 1.934.396.537.264.978.612 1.322 1.043.345.432.597.928.757 1.487.16.56.24 1.136.24 1.727v7.197h-2.884v-6.381c0-.336-.024-.687-.072-1.056-.048-.368-.153-.699-.313-.995-.16-.296-.381-.54-.661-.732-.28-.192-.653-.288-1.118-.288-.465 0-.865.092-1.202.276-.336.184-.613.42-.829.708-.217.288-.381.62-.493.995-.112.376-.168.756-.168 1.139v6.333h-2.884v-11.514"/>
      <path d="m67.05 33.698c0-.912.164-1.739.493-2.483.328-.744.773-1.379 1.334-1.907.561-.528 1.226-.935 1.995-1.223.769-.288 1.586-.432 2.452-.432.865 0 1.682.144 2.452.432.769.288 1.434.696 1.995 1.223.561.528 1.01 1.164 1.334 1.907.328.743.493 1.571.493 2.483 0 .911-.165 1.743-.493 2.495-.329.752-.773 1.396-1.334 1.931-.561.536-1.226.956-1.995 1.259-.769.303-1.586.456-2.452.456-.865 0-1.682-.152-2.452-.456-.769-.304-1.434-.724-1.995-1.259-.561-.536-1.01-1.179-1.334-1.931-.329-.752-.493-1.583-.493-2.495m2.932 0c0 .448.068.895.204 1.343.136.448.34.848.613 1.199.272.352.617.64 1.033.864.417.224.913.336 1.49.336.577 0 1.073-.111 1.49-.336.416-.224.761-.512 1.033-.864.272-.351.477-.751.613-1.199.136-.448.205-.895.205-1.343 0-.448-.069-.891-.205-1.332-.136-.44-.341-.835-.613-1.187-.273-.352-.617-.636-1.033-.852-.417-.216-.913-.324-1.49-.324-.577 0-1.074.108-1.49.324-.417.216-.761.5-1.033.852-.273.352-.477.748-.613 1.187-.137.44-.204.884-.204 1.332"/>
      <path d="m88.11 31.06c-.256-.336-.609-.628-1.057-.875-.449-.248-.937-.372-1.466-.372-.465 0-.89.096-1.274.288-.385.192-.577.512-.577.959 0 .448.212.764.637.948.424.184 1.045.372 1.863.564.433.096.869.224 1.31.384.441.16.841.372 1.202.636.36.264.652.592.877.983.224.392.337.868.337 1.427 0 .704-.132 1.3-.397 1.787-.264.488-.617.884-1.058 1.188-.441.304-.953.524-1.538.66-.585.136-1.19.204-1.815.204-.898 0-1.77-.164-2.62-.492-.85-.328-1.555-.795-2.115-1.403l1.899-1.775c.32.416.737.76 1.25 1.031.513.272 1.082.408 1.707.408.208 0 .421-.024.637-.072.217-.048.417-.124.601-.228.184-.103.332-.243.445-.419.112-.176.168-.392.168-.648 0-.48-.22-.823-.661-1.031-.441-.208-1.102-.416-1.983-.624-.433-.096-.853-.22-1.262-.372-.409-.151-.773-.351-1.094-.6-.321-.248-.577-.555-.769-.923-.192-.368-.288-.824-.288-1.367 0-.639.132-1.191.397-1.655.264-.463.613-.843 1.045-1.14.433-.296.921-.515 1.466-.659.544-.144 1.105-.216 1.682-.216.833 0 1.647.144 2.44.432.793.288 1.422.728 1.887 1.319l-1.875 1.655"/>
    </g>
    <path d="m34.08 24.08c0-.464.172-.867.517-1.211.344-.344.781-.515 1.31-.515.529 0 .973.164 1.334.492.361.328.541.74.541 1.235 0 .496-.18.908-.541 1.235-.36.328-.805.492-1.334.492-.529 0-.966-.172-1.31-.515-.345-.344-.517-.747-.517-1.212" fill="#beb5af"/>
  </g>
</svg>
